Reading in data and basic data manipulation using R – Martin S Andersen
…
Summarizing data

We can look at the data we have loaded in several ways. The easiest (in RStudio) is to use the viewer either by clicking on the data object in the environment window or by typing View(data) in the console window. These ways of viewing the data provide a detailed, line by line, view of the data. We can achieve something similar by typing data or print(data) at the console:

# A tibble: 4,128 × 9
    year   age sex        pop any_insurance private_insurance chip_insurance
   <dbl> <dbl> <chr>    <dbl>         <dbl>             <dbl>          <dbl>
 1  2000     0 female 1950004         0.891             0.564        0.0147 
 2  2000     0 male   1981206         0.886             0.617        0.00979
 3  2000     1 female 2021247         0.860             0.536        0.0278 
 4  2000     1 male   1971851         0.855             0.619        0.0147 
 5  2000     2 female 1912194         0.883             0.697        0.0133 
 6  2000     2 male   1900073         0.877             0.602        0.0126 
 7  2000     3 female 1724788         0.886             0.632        0.00925
 8  2000     3 male   2157487         0.898             0.624        0.0325 
 9  2000     4 female 1979674         0.885             0.691        0.0172 
10  2000     4 male   2010541         0.892             0.674        0.0233 
# ℹ 4,118 more rows
# ℹ 2 more variables: mcaid_insurance <dbl>, mcare_insurance <dbl>
…
arrange sorts and reorders a dataframe

select

The select command allows you to subset, reorder, and rename variables from a dataframe.

Subsetting

For example, if we wanted to select only the variables year, sex, and age from the data dataframe we would type:

data|>select(year,sex,age)

The output would look something like this:

# A tibble: 4,128 × 3
    year sex      age
   <dbl> <chr>  <dbl>
 1  2000 female     0
 2  2000 male       0
 3  2000 female     1
 4  2000 male       1
 5  2000 female     2
 6  2000 male       2
 7  2000 female     3
 8  2000 male       3
 9  2000 female     4
10  2000 male       4
# ℹ 4,118 more rows

I like to use the select command when I am writing code to help me make sure that I coded up a variable correctly, something that we will get to in the next command.

Reordering

Another use of the select command is to reorder the variables in a dataframe. For example, if we wanted to reorder the variables in the data dataframe so that age was the first variable, we would type:

data|>select(age,everything())

The output would look something like this:

# A tibble: 4,128 × 9
     age  year sex        pop any_insurance private_insurance chip_insurance
   <dbl> <dbl> <chr>    <dbl>         <dbl>             <dbl>          <dbl>
 1     0  2000 female 1950004         0.891             0.564        0.0147 
 2     0  2000 male   1981206         0.886             0.617        0.00979
 3     1  2000 female 2021247         0.860             0.536        0.0278 
 4     1  2000 male   1971851         0.855             0.619        0.0147 
 5     2  2000 female 1912194         0.883             0.697        0.0133 
 6     2  2000 male   1900073         0.877             0.602        0.0126 
 7     3  2000 female 1724788         0.886             0.632        0.00925
 8     3  2000 male   2157487         0.898             0.624        0.0325 
 9     4  2000 female 1979674         0.885             0.691        0.0172 
10     4  2000 male   2010541         0.892             0.674        0.0233 
# ℹ 4,118 more rows
# ℹ 2 more variables: mcaid_insurance <dbl>, mcare_insurance <dbl>

Now age is the first column of the dataframe.

Renaming

Finally, we can use the select command to rename variables. For example, if we wanted to rename the variable year to yr we would type:

data|>select(yr=year, everything())

The output would look something like this:

# A tibble: 4,128 × 9
      yr   age sex        pop any_insurance private_insurance chip_insurance
   <dbl> <dbl> <chr>    <dbl>         <dbl>             <dbl>          <dbl>
 1  2000     0 female 1950004         0.891             0.564        0.0147 
 2  2000     0 male   1981206         0.886             0.617        0.00979
 3  2000     1 female 2021247         0.860             0.536        0.0278 
 4  2000     1 male   1971851         0.855             0.619        0.0147 
 5  2000     2 female 1912194         0.883             0.697        0.0133 
 6  2000     2 male   1900073         0.877             0.602        0.0126 
 7  2000     3 female 1724788         0.886             0.632        0.00925
 8  2000     3 male   2157487         0.898             0.624        0.0325 
 9  2000     4 female 1979674         0.885             0.691        0.0172 
10  2000     4 male   2010541         0.892             0.674        0.0233 
# ℹ 4,118 more rows
# ℹ 2 more variables: mcaid_insurance <dbl>, mcare_insurance <dbl>

mutate

The mutate command can be used to create new variables by “assigning” a value to a variable name. For example, we can create a new variable age_squared that is the square of age by typing:

data|>mutate(age_squared=age^2)

If you run that line of code in your console window you should see something like:

# A tibble: 4,128 × 10
    year   age sex        pop any_insurance private_insurance chip_insurance
   <dbl> <dbl> <chr>    <dbl>         <dbl>             <dbl>          <dbl>
 1  2000     0 female 1950004         0.891             0.564        0.0147 
 2  2000     0 male   1981206         0.886             0.617        0.00979
 3  2000     1 female 2021247         0.860             0.536        0.0278 
 4  2000     1 male   1971851         0.855             0.619        0.0147 
 5  2000     2 female 1912194         0.883             0.697        0.0133 
 6  2000     2 male   1900073         0.877             0.602        0.0126 
 7  2000     3 female 1724788         0.886             0.632        0.00925
 8  2000     3 male   2157487         0.898             0.624        0.0325 
 9  2000     4 female 1979674         0.885             0.691        0.0172 
10  2000     4 male   2010541         0.892             0.674        0.0233 
# ℹ 4,118 more rows
# ℹ 3 more variables: mcaid_insurance <dbl>, mcare_insurance <dbl>,
#   age_squared <dbl>

Note that we have now created a new column, but we can only tell by looking at the bottom line of the output. Let’s fix that by using the select command:

data|>mutate(age_squared=age^2)|>select(age, age_squared,everything())

# A tibble: 4,128 × 10
     age age_squared  year sex        pop any_insurance private_insurance
   <dbl>       <dbl> <dbl> <chr>    <dbl>         <dbl>             <dbl>
 1     0           0  2000 female 1950004         0.891             0.564
 2     0           0  2000 male   1981206         0.886             0.617
 3     1           1  2000 female 2021247         0.860             0.536
 4     1           1  2000 male   1971851         0.855             0.619
 5     2           4  2000 female 1912194         0.883             0.697
 6     2           4  2000 male   1900073         0.877             0.602
 7     3           9  2000 female 1724788         0.886             0.632
 8     3           9  2000 male   2157487         0.898             0.624
 9     4          16  2000 female 1979674         0.885             0.691
10     4          16  2000 male   2010541         0.892             0.674
# ℹ 4,118 more rows
# ℹ 3 more variables: chip_insurance <dbl>, mcaid_insurance <dbl>,
#   mcare_insurance <dbl>

Now, take a look at the output. Is it correct? Is the second column the square of the first column? If not, what went wrong?

We will use the mutate command to create a new variable that creates two variables that we will use later. First, we will create a variable over65 that equals 1 if age is greater than or equal to 65. In order to do this, we will use the if_else command, which is a way to create a conditional variable. The if_else command takes three arguments: the condition, the value if the condition is true, and the value if the condition is false. For example, if we wanted to create a variable over65 that equals 1 if age is greater than or equal to 65 and 0 otherwise we would type:

data|>mutate(over65=if_else(age>=65,1,0))

# A tibble: 4,128 × 10
     age over65  year sex        pop any_insurance private_insurance
   <dbl>  <dbl> <dbl> <chr>    <dbl>         <dbl>             <dbl>
 1     0      0  2000 female 1950004         0.891             0.564
 2     0      0  2000 male   1981206         0.886             0.617
 3     1      0  2000 female 2021247         0.860             0.536
 4     1      0  2000 male   1971851         0.855             0.619
 5     2      0  2000 female 1912194         0.883             0.697
 6     2      0  2000 male   1900073         0.877             0.602
 7     3      0  2000 female 1724788         0.886             0.632
 8     3      0  2000 male   2157487         0.898             0.624
 9     4      0  2000 female 1979674         0.885             0.691
10     4      0  2000 male   2010541         0.892             0.674
# ℹ 4,118 more rows
# ℹ 3 more variables: chip_insurance <dbl>, mcaid_insurance <dbl>,
#   mcare_insurance <dbl>
…
# A tibble: 2 × 2
  over65     n
   <dbl> <int>
1      0  3120
2      1  1008

Now, let’s create one more variable age_minus_65 which, as the name suggests, is simply age minus 65:

data<-data|>mutate(age_minus_65=age-65)

We can check if we got it right by counting the age and age_minus_65:

data|>count(age,age_minus_65)

# A tibble: 86 × 3
     age age_minus_65     n
   <dbl>        <dbl> <int>
 1     0          -65    48
 2     1          -64    48
 3     2          -63    48
 4     3          -62    48
 5     4          -61    48
 6     5          -60    48
 7     6          -59    48
 8     7          -58    48
 9     8          -57    48
10     9          -56    48
# ℹ 76 more rows

filter

The filter command allows you to subset the rows of your data (not columns, which is what select does) using a conditional expression. For example, if we wanted to select only the rows of the data dataframe where age is greater than or equal to 65 we would type:

data|>filter(age>=65)

# A tibble: 1,008 × 11
    year   age sex        pop any_insurance private_insurance chip_insurance
   <dbl> <dbl> <chr>    <dbl>         <dbl>             <dbl>          <dbl>
 1  2000    65 female 1132678         0.982             0.620              0
 2  2000    65 male    937803         0.978             0.725              0
 3  2000    66 female  872208         0.997             0.603              0
 4  2000    66 male    784400         0.954             0.625              0
 5  2000    67 female  993634         0.967             0.630              0
 6  2000    67 male    893301         0.955             0.666              0
 7  2000    68 female 1079059         0.993             0.635              0
 8  2000    68 male    733120         0.957             0.646              0
 9  2000    69 female  968159         0.991             0.692              0
10  2000    69 male    681218         1                 0.699              0
# ℹ 998 more rows
# ℹ 4 more variables: mcaid_insurance <dbl>, mcare_insurance <dbl>,
#   over65 <dbl>, age_minus_65 <dbl>
…
>=
Greater than or equal to
5 >= 6 returns FALSE

<=
Less than or equal to
6 <= 6 returns TRUE

When using the filter command, you can put in multiple statements (like we did to filter by age AND sex). But, when you do that the filter command only keeps rows that meet all of those criteria. If you want to keep rows that meet any of the criteria you can use the | symbol. For example, if we wanted to select only the rows of the data dataframe where age is greater than or equal to 65 OR sex is equal to 1 we would type:

data|>filter(age>=65 | sex==1)

# A tibble: 1,008 × 11
    year   age sex        pop any_insurance private_insurance chip_insurance
   <dbl> <dbl> <chr>    <dbl>         <dbl>             <dbl>          <dbl>
 1  2000    65 female 1132678         0.982             0.620              0
 2  2000    65 male    937803         0.978             0.725              0
 3  2000    66 female  872208         0.997             0.603              0
 4  2000    66 male    784400         0.954             0.625              0
 5  2000    67 female  993634         0.967             0.630              0
 6  2000    67 male    893301         0.955             0.666              0
 7  2000    68 female 1079059         0.993             0.635              0
 8  2000    68 male    733120         0.957             0.646              0
 9  2000    69 female  968159         0.991             0.692              0
10  2000    69 male    681218         1                 0.699              0
# ℹ 998 more rows
# ℹ 4 more variables: mcaid_insurance <dbl>, mcare_insurance <dbl>,
#   over65 <dbl>, age_minus_65 <dbl>

Think about how you would check if you got the right answer. What would you do?

summarize

Sometimes you want to summarize or aggregate your data, either to simplify your analysis later on, make a dataset that is easier for students to use, or other reasons. You do that with the summarize verb in R. For example, if we wanted to summarize the data dataframe by year and sex we would type: > data|>group_by(year,sex)|>summarize(mean_age=mean(age),n=n())

data|>group_by(year,sex)|>summarize(mean_age=mean(age),n=n())

`summarise()` has grouped output by 'year'. You can override using the
`.groups` argument.

# A tibble: 48 × 4
# Groups:   year [24]
    year sex    mean_age     n
   <dbl> <chr>     <dbl> <int>
 1  2000 female     42.5    86
 2  2000 male       42.5    86
 3  2001 female     42.5    86
 4  2001 male       42.5    86
 5  2002 female     42.5    86
 6  2002 male       42.5    86
 7  2003 female     42.5    86
 8  2003 male       42.5    86
 9  2004 female     42.5    86
10  2004 male       42.5    86
# ℹ 38 more rows

Hmmm…. this doesn’t look right, does it? Every combination appears to have the same mean_age and n. What went wrong? The problem is that we didn’t tell R to calculate the mean and count taking into account the number of observations wihtin each cell. We can do that in one of two ways. We can use the weighted.mean command to compute the weighted mean (and then use the sum command to get the sum of pop). But we can also go back to “first principles” and remember that the mean of a variable is the sum of the variable times the weight divided by the sum of the weight.

So, we can calculate the mean of age by year and sex by typing:

data|>group_by(year,sex)|>summarize( mean_age=sum(age*pop)/sum(pop), n=sum(pop))

data|>group_by(year,sex)|>summarize(
  mean_age=sum(age*pop)/sum(pop),
 n=sum(pop))

`summarise()` has grouped output by 'year'. You can override using the
`.groups` argument.

# A tibble: 48 × 4
# Groups:   year [24]
    year sex    mean_age         n
   <dbl> <chr>     <dbl>     <dbl>
 1  2000 female     36.3 140398513
 2  2000 male       34.3 133625780
 3  2001 female     36.5 141586626
 4  2001 male       34.4 134894673
 5  2002 female     36.6 142734367
 6  2002 male       34.6 136060670
 7  2003 female     37.0 146414283
 8  2003 male       34.8 139600816
 9  2004 female     37.2 147355026
10  2004 male       35.0 140902784
# ℹ 38 more rows
…
Most tidyverse commands that work with groups have a .by argument that allows you to specify the groups that you want to use. For example, you could have written the summarize command above as: > data|>summarize( > mean_age=sum(age*pop)/sum(pop), > n=sum(pop), .by=c(year,sex))

Where the final c function tells R to use BOTH year and sex together to construct the groups.

Summarizing multiple variables at once

Suppose we wanted to compute the weighted average of a few more variables (not just age). Maybe we wanted to look at changes in isnurance coverage by year (we will ignore sex for the moment). We can use the across command to help us out. across takes a list of variable names and a function template to do the same computation across the columns. To calculate the average age, the average of mcaid_insurance, the average of pricate_insruance. and the average of mcare_insurance by year we would type:

data|>group_by(year)|> summarize( across( c(age,mcaid_insurance,private_insurance,mcare_insurance), ~sum(.x*pop)/sum(pop) ) )

data|>
  group_by(year)|>
  summarize(across(c(age,mcaid_insurance,private_insurance,mcare_insurance),~sum(.x*pop)/sum(pop)))

# A tibble: 24 × 5
    year   age mcaid_insurance private_insurance mcare_insurance
   <dbl> <dbl>           <dbl>             <dbl>           <dbl>
 1  2000  35.3          0.0810             0.708           0.125
 2  2001  35.5          0.0806             0.708           0.125
 3  2002  35.6          0.0928             0.688           0.124
 4  2003  36.0          0.0947             0.674           0.125
 5  2004  36.1          0.0963             0.672           0.127
 6  2005  36.3          0.102              0.663           0.131
 7  2006  36.4          0.110              0.644           0.134
 8  2007  36.5          0.111              0.648           0.136
 9  2008  36.7          0.115              0.639           0.141
10  2009  36.9          0.124              0.617           0.141
# ℹ 14 more rows

Now we see that we have the columns that we want!

arrange

The final verb we will cover is arrange, which is used to arrange or order a dataframe. For example, if we wanted to order the data dataframe by age we would type:

data|>arrange(year)

# A tibble: 4,128 × 11
    year   age sex        pop any_insurance private_insurance chip_insurance
   <dbl> <dbl> <chr>    <dbl>         <dbl>             <dbl>          <dbl>
 1  2000     0 female 1950004         0.891             0.564        0.0147 
 2  2000     0 male   1981206         0.886             0.617        0.00979
 3  2001     0 female 1945606         0.942             0.675        0.0239 
 4  2001     0 male   1995217         0.921             0.626        0.0225 
 5  2002     0 female 1931185         0.938             0.579        0.0343 
 6  2002     0 male   2010451         0.926             0.554        0.0469 
 7  2003     0 female 1849941         0.936             0.540        0.0118 
 8  2003     0 male   2020784         0.942             0.517        0.0273 
 9  2004     0 female 1923205         0.943             0.500        0.0212 
10  2004     0 male   1968188         0.940             0.551        0.0442 
# ℹ 4,118 more rows
# ℹ 4 more variables: mcaid_insurance <dbl>, mcare_insurance <dbl>,
#   over65 <dbl>, age_minus_65 <dbl>
…
